<svg width="12" height="12" viewBox="0 0 12 12" fill="none" xmlns="http://www.w3.org/2000/svg">
<path d="M2.85523 4.84986C3.05023 5.04486 3.36523 5.04486 3.56023 4.84986L5.50023 2.91486V10.4999C5.50023 10.7749 5.72523 10.9999 6.00023 10.9999C6.27523 10.9999 6.50023 10.7749 6.50023 10.4999V2.91486L8.44023 4.85486C8.63523 5.04986 8.95023 5.04986 9.14523 4.85486C9.34023 4.65986 9.34023 4.34486 9.14523 4.14986L6.35023 1.34986C6.15523 1.15486 5.84023 1.15486 5.64523 1.34986L2.85523 4.14486C2.66023 4.33986 2.66023 4.65986 2.85523 4.84986Z" fill="#494949"/>
</svg>
